Tabulate P.L. 94-171 Redistricting Data Summary Files • PL94171
…
#> Simple feature collection with 569 features and 24 fields (with 14 geometries empty)
#> Geometry type: MULTIPOLYGON
#> Dimension:     XY
#> Bounding box:  xmin: -71.43177 ymin: 41.77241 xmax: -71.36969 ymax: 41.82055
#> Geodetic CRS:  NAD83
#> # A tibble: 569 x 25
#>    GEOID      state county     vtd     pop pop_hisp pop_white pop_black pop_aian
#>    <chr>      <chr> <chr>      <chr> <int>    <int>     <int>     <int>    <int>
#>  1 440070001… RI    Providenc… 4428…     0        0         0         0        0
#>  2 440070001… RI    Providenc… 4428…     0        0         0         0        0
#>  3 440070001… RI    Providenc… 4428…     0        0         0         0        0
#>  4 440070001… RI    Providenc… 4428…    50        0        50         0        0
#>  5 440070001… RI    Providenc… 4428…     0        0         0         0        0
#>  6 440070001… RI    Providenc… 4428…     0        0         0         0        0
#>  7 440070001… RI    Providenc… 4428…    18       18         0         0        0
#>  8 440070001… RI    Providenc… 4428…     0        0         0         0        0
#>  9 440070001… RI    Providenc… 4428…    86       86         0         0        0
#> 10 440070001… RI    Providenc… 4428…    19        0         0        19        0
#> # … with 559 more rows, and 16 more variables: pop_asian <int>, pop_nhpi <int>,
#> #   pop_other <int>, pop_two <int>, vap <int>, vap_hisp <int>, vap_white <int>,
#> #   vap_black <int>, vap_aian <int>, vap_asian <int>, vap_nhpi <int>,
#> #   vap_other <int>, vap_two <int>, area_land <dbl>, area_water <dbl>,
#> #   geometry <MULTIPOLYGON [°]>
…
