Approximately re-tally Census data under new block boundaries — pl_retally • PL94171
…
pl_retally(RI_2010, crosswalk)

#> # A tibble: 25,649 x 24
#>    GEOID     state county    vtd   area_land area_water   pop pop_hisp pop_white
#>    <chr>     <chr> <chr>     <chr>     <dbl>      <dbl> <int>    <int>     <int>
#>  1 44001030… RI    Bristol … NA         5329          0    15        3        13
#>  2 44001030… RI    Bristol … NA         6001          0     8        0         6
#>  3 44001030… RI    Bristol … NA        11821          0    17        0        17
#>  4 44001030… RI    Bristol … NA        16049          0    28        0        28
#>  5 44001030… RI    Bristol … NA         5398          0    12        0         9
#>  6 44001030… RI    Bristol … NA       181092          0    93        1        84
#>  7 44001030… RI    Bristol … NA        17056          0    23        0        23
#>  8 44001030… RI    Bristol … NA        16672          0    28        0        28
#>  9 44001030… RI    Bristol … NA         7291          0     9        0         9
#> 10 44001030… RI    Bristol … NA       164924          0    70        1        64
#> # … with 25,639 more rows, and 15 more variables: pop_black <int>,
#> #   pop_aian <int>, pop_asian <int>, pop_nhpi <int>, pop_other <int>,
#> #   pop_two <int>, vap <int>, vap_hisp <int>, vap_white <int>, vap_black <int>,
#> #   vap_aian <int>, vap_asian <int>, vap_nhpi <int>, vap_other <int>,
#> #   vap_two <int>
…
