Reading Legacy Census Redistricting Data • PL94171
…
This creates a large list where each individual PL file is a separate entry in the list. To make that into a more familiar format, we can run the following:

pl <- pl_select_standard(pl_raw, clean_names = TRUE)

Above, we set clean_names = TRUE, which is the default. This creates a set of variables familiar to the redist family of packages.

Now, we can subset the data to the relevant summary level, which is the formal term for the geography that we care about. We want blocks in this case, which is the default.

pl <- pl %>% pl_subset()

To see all possible summary levels, take a look at:

pl_geog_levels
#> # A tibble: 85 x 2
#>    SUMLEV SUMLEV_description                                     
#>    <chr>  <chr>                                                  
#>  1 040    State                                                  
#>  2 050    State-County                                           
#>  3 060    State-County-County Subdivision                        
#>  4 067    State-County-County Subdivision-Subminor Civil Division
#>  5 140    State-County-Census Tract                              
#>  6 150    State-County-Census Tract-Block Group                  
#>  7 155    State-Place-County                                     
#>  8 160    State-Place                                            
#>  9 170    State-Consolidated City                                
#> 10 172    State-Consolidated City-Place within Consolidated City 
#> # … with 75 more rows
…
