Reading Legacy Census Redistricting Data • PL94171
…
To subset to a desired geography level, we must first identify the corresponding SUMLEV code.

print(pl_geog_levels)
#> # A tibble: 85 × 2
#>    SUMLEV SUMLEV_description                                     
#>    <chr>  <chr>                                                  
#>  1 040    State                                                  
#>  2 050    State-County                                           
#>  3 060    State-County-County Subdivision                        
#>  4 067    State-County-County Subdivision-Subminor Civil Division
#>  5 140    State-County-Census Tract                              
#>  6 150    State-County-Census Tract-Block Group                  
#>  7 155    State-Place-County                                     
#>  8 160    State-Place                                            
#>  9 170    State-Consolidated City                                
#> 10 172    State-Consolidated City-Place within Consolidated City 
#> # … with 75 more rows
…
